{
	"data": {
		"banner": {
			"context": {
				"currentTime": 1538014774
			},
			"isEnd": true,
			"list": [{
				"acm": "3.mce.2_10_1jhwa.43542.0.ccy5br4OlfK0Q.pos_0-m_454801-sd_119",
				"height": 390,
				"height923": 390,
				"image": "https://s10.mogucdn.com/mlcdn/c45406/180926_45fkj8ifdj4l824l42dgf9hd0h495_750x390.jpg",
				"image923": "https://s10.mogucdn.com/mlcdn/c45406/180926_7d5c521e0aa3h38786lkakebkjlh8_750x390.jpg",
				"link": "https://act.mogujie.com/huanxin0001?acm=3.mce.2_10_1jhwa.43542.0.ccy5br4OlfK0Q.pos_0-m_454801-sd_119",
				"title": "焕新女装节",
				"width": 750,
				"width923": 750
			}, {
				"acm": "3.mce.2_10_1ji16.43542.0.ccy5br4OlfK0R.pos_1-m_454889-sd_119",
				"height": 390,
				"height923": 390,
				"image": "https://s10.mogucdn.com/mlcdn/c45406/180926_31eb9h75jc217k7iej24i2dd0jba3_750x390.jpg",
				"image923": "https://s10.mogucdn.com/mlcdn/c45406/180926_14l41d2ekghbeh771g3ghgll54224_750x390.jpg",
				"link": "https://act.mogujie.com/ruqiu00001?acm=3.mce.2_10_1ji16.43542.0.ccy5br4OlfK0R.pos_1-m_454889-sd_119",
				"title": "入秋穿搭指南",
				"width": 750,
				"width923": 750
			}, {
				"acm": "3.mce.2_10_1jfj8.43542.0.ccy5br4OlfK0S.pos_2-m_453270-sd_119",
				"height": 390,
				"height923": 390,
				"image": "https://s10.mogucdn.com/mlcdn/c45406/180919_3f62ijgkj656k2lj03dh0di4iflea_750x390.jpg",
				"image923": "https://s10.mogucdn.com/mlcdn/c45406/180919_47iclhel8f4ld06hid21he98i93fc_750x390.jpg",
				"link": "https://act.mogujie.com/huanji001?acm=3.mce.2_10_1jfj8.43542.0.ccy5br4OlfK0S.pos_2-m_453270-sd_119",
				"title": "秋季护肤大作战",
				"width": 750,
				"width923": 750
			}, {
				"acm": "3.mce.2_10_1jepe.43542.0.ccy5br4OlfK0T.pos_3-m_452733-sd_119",
				"height": 390,
				"height923": 390,
				"image": "https://s10.mogucdn.com/mlcdn/c45406/180917_18l981g6clk33fbl3833ja357aaa0_750x390.jpg",
				"image923": "https://s10.mogucdn.com/mlcdn/c45406/180917_0hgle1e2c350a57ekhbj4f10a6b03_750x390.jpg",
				"link": "https://act.mogujie.com/liuxing00001?acm=3.mce.2_10_1jepe.43542.0.ccy5br4OlfK0T.pos_3-m_452733-sd_119",
				"title": "流行抢先一步",
				"width": 750,
				"width923": 750
			}],
			"nextPage": 1
		},
		"dKeyword": {
			"context": {
				"currentTime": 1538014774
			},
			"isEnd": true,
			"list": [{
				"acm": "3.mce.2_10_1ag5u.6348.0.ccy5br4OlfK0P.pos_0-m_243725-sd_119",
				"defaultKeyWord": "套装"
			}],
			"nextPage": 1
		},
		"keywords": {
			"context": {
				"currentTime": 1538014774
			},
			"isEnd": true,
			"list": [{
				"acm": "3.mce.2_10_185r2.5868.0.ccy5br4OlfK1Y.pos_0-m_190323-sd_119",
				"is_red": "1",
				"words": "连衣裙"
			}, {
				"acm": "3.mce.2_10_185r4.5868.0.ccy5br4OlfK1Z.pos_1-m_190324-sd_119",
				"is_red": "0",
				"words": "小白鞋"
			}, {
				"acm": "3.mce.2_10_185r6.5868.0.ccy5br4OlfK10.pos_2-m_190325-sd_119",
				"is_red": "1",
				"words": "省心套装"
			}, {
				"acm": "3.mce.2_10_185r8.5868.0.ccy5br4OlfK11.pos_3-m_190326-sd_119",
				"is_red": "0",
				"words": "碎花连衣裙"
			}, {
				"acm": "3.mce.2_10_185ra.5868.0.ccy5br4OlfK12.pos_4-m_190327-sd_119",
				"is_red": "1",
				"words": "明星同款"
			}, {
				"acm": "3.mce.2_10_185rc.5868.0.ccy5br4OlfK13.pos_5-m_190328-sd_119",
				"is_red": "1",
				"words": "高跟鞋"
			}, {
				"acm": "3.mce.2_10_185re.5868.0.ccy5br4OlfK14.pos_6-m_190329-sd_119",
				"is_red": "0",
				"words": "美妆"
			}, {
				"acm": "3.mce.2_10_185rg.5868.0.ccy5br4OlfK15.pos_7-m_190330-sd_119",
				"is_red": "1",
				"words": "墨镜"
			}],
			"nextPage": 1
		},
		"recommend": {
			"context": {
				"currentTime": 1538014774
			},
			"isEnd": true,
			"list": [{
				"acm": "3.mce.2_10_1dggc.13730.0.ccy5br4OlfK0U.pos_0-m_313898-sd_119",
				"image": "https://s10.mogucdn.com/mlcdn/c45406/180913_036dli57aah85cb82l1jj722g887g_225x225.png",
				"link": "http://act.meilishuo.com/10dianlingquan?acm=3.mce.2_10_1dggc.13730.0.ccy5br4OlfK0U.pos_0-m_313898-sd_119",
				"sort": 1,
				"title": "十点抢券"
			}, {
				"acm": "3.mce.2_10_1dgge.13730.0.ccy5br4OlfK0V.pos_1-m_313899-sd_119",
				"image": "https://s10.mogucdn.com/mlcdn/c45406/180913_25e804lk773hdk695c60cai492111_225x225.png",
				"link": "https://act.mogujie.com/tejiazhuanmai09?acm=3.mce.2_10_1dgge.13730.0.ccy5br4OlfK0V.pos_1-m_313899-sd_119",
				"sort": 2,
				"title": "好物特卖"
			}, {
				"acm": "3.mce.2_10_1b610.13730.0.ccy5br4OlfK0W.pos_2-m_260486-sd_119",
				"image": "https://s10.mogucdn.com/mlcdn/c45406/180913_387kgl3j21ff29lh04181iek48a6h_225x225.png",
				"link": "http://act.meilishuo.com/neigouful001?acm=3.mce.2_10_1b610.13730.0.ccy5br4OlfK0W.pos_2-m_260486-sd_119",
				"sort": 3,
				"title": "内购福利"
			}, {
				"acm": "3.mce.2_10_1dggg.13730.0.ccy5br4OlfK0X.pos_3-m_313900-sd_119",
				"image": "https://s10.mogucdn.com/mlcdn/c45406/180913_8d4e5adi8llg7c47lgh2291akiec7_225x225.png",
				"link": "http://act.meilishuo.com/wap/yxzc1?acm=3.mce.2_10_1dggg.13730.0.ccy5br4OlfK0X.pos_3-m_313900-sd_119",
				"sort": 4,
				"title": "初秋上新"
			}],
			"nextPage": 1
		}
	},
	"returnCode": "SUCCESS",
	"success": true
} {
	"totalCount": 513,
	"totalPage": 103,
	"currentPage": 1,
	"pageSize": 5,
	"list": [{
		"rid": 1,
		"rname": "【旅展 半价特惠 重走丝路•漫游宁夏 双飞4天】银川西部影视城 穆民新村 中卫沙坡头【品美酒 回族学唱花儿 感悟民俗】",
		"price": 999.0,
		"routeIntroduce": "走进【宁夏沙坡头】，感受西北大漠风情、体会“大漠孤烟直，长河落日圆”的塞上风光！",
		"rflag": "1",
		"rdate": "2018-02-09 01:13:16",
		"isThemeTour": "0",
		"count": 0,
		"cid": 5,
		"rimage": "img/product/small/m304b69a4c8328f7d6b8d5dadef020fe07.jpg",
		"sid": 1,
		"sourceId": "23677",
		"category": null,
		"seller": null,
		"routeImgList": null
	}, {
		"rid": 2,
		"rname": "【官网专享 立减¥500 张家界天门山+大峡谷+凤凰古城+玻璃栈道+玻璃桥 高铁4天 无自费5钻】印象鲵宴-赶年宴+2晚蓝湾博格酒店",
		"price": 1799.0,
		"routeIntroduce": "官网专线，顶级品质！全程超豪华住宿，2晚入住超豪华铂金-蓝湾博格国际酒店，独家尊享金马VIP贵宾专用楼层。",
		"rflag": "1",
		"rdate": "2018-02-09 01:13:17",
		"isThemeTour": "0",
		"count": 990,
		"cid": 5,
		"rimage": "img/product/small/m34866f055de8630e94e25c40f277a79ba.jpg",
		"sid": 1,
		"sourceId": "22066",
		"category": null,
		"seller": null,
		"routeImgList": null
	}, {
		"rid": 3,
		"rname": "【官网专享 5折预售 越南下龙湾+河内+芒街 高铁4天 高级团】双导游服务 免收服务小费【越超值·美食越南】",
		"price": 1199.0,
		"routeIntroduce": "双导游服务，免收服务小费，周全照顾贴心服务随心出游！品尝越南特色国宝美食，升级一餐越式炸鸡火锅宴！",
		"rflag": "1",
		"rdate": "2018-02-09 01:13:17",
		"isThemeTour": "0",
		"count": 0,
		"cid": 5,
		"rimage": "img/product/small/m3db4d2277b5df3d98597f79082ef92d6d.jpg",
		"sid": 1,
		"sourceId": "21998",
		"category": null,
		"seller": null,
		"routeImgList": null
	}, {
		"rid": 4,
		"rname": "【官网专享 送箱 ¥1099秒杀 华东五市+乌镇+南浔 双飞6天 南京进上海出】升级1晚豪华酒店 漫步西湖【水墨江南】",
		"price": 1099.0,
		"routeIntroduce": "升级入住1晚豪华酒店；畅玩江南两大经典水乡——乌镇水乡和南浔水乡，体验这里的历史文化底蕴、清丽婉约的水乡古镇风貌。",
		"rflag": "1",
		"rdate": "2018-02-09 01:13:17",
		"isThemeTour": "0",
		"count": 0,
		"cid": 5,
		"rimage": "img/product/small/m3d91ef60e0c7fdeee97a4e2d3e5a42e84.jpg",
		"sid": 1,
		"sourceId": "21943",
		"category": null,
		"seller": null,
		"routeImgList": null
	}, {
		"rid": 5,
		"rname": "梅州 双飞3天2晚 自由行套票【含广州直飞梅州早对晚含税往返机票+2晚梅州市区酒店】",
		"price": 999.0,
		"routeIntroduce": "含广州直飞梅州早对晚含税往返机票+2晚梅州市区酒店！",
		"rflag": "1",
		"rdate": "2018-02-09 01:13:17",
		"isThemeTour": "0",
		"count": 0,
		"cid": 5,
		"rimage": "img/product/small/m3ac1aa10b493b4b22221e19ba39f7e6a1.jpg",
		"sid": 1,
		"sourceId": "21917",
		"category": null,
		"seller": null,
		"routeImgList": null
	}]
}
